{
  "kitana": {
    "host": "localhost",
    "port": 27017,
    "database": "fleeton",
    "user": "",
    "password": ""
  },

  "millena": {
    "host": "localhost",
    "port": 27017,
    "database": "vehicle_data",
    "user": "",
    "password": ""
  }
}